{
  "header": {
    "file_name": "ressources.json",
    "last_update": "08/10/2019 13:08",
    "version": 1.0,
    "author": "TicTacToe Group",
    "description": "Units information's."
  },
  "units": {
    "id": "Units",
    "soldier": {
      "id": "Units.Soldier",
      "name": "Soldier",
      "hp": 100,
      "scope": 0,
      "damage": {
        "value": 20,
        "modifier": [
          {
            "id": "Building",
            "value": 5.0
          }
        ]
      },
      "speed": 1.0,
      "price": {
        "wood": 100,
        "steel": 0,
        "gold": 0
      },
      "hiring_time": 15,
      "research_time": 0
    },
    "shooter": {
      "id": "Units.Shooter",
      "name": "Shooter",
      "hp": 80,
      "scope": 3,
      "damage": {
        "value": 25,
        "modifier": null
      },
      "speed": 1.0,
      "price": {
        "wood": 100,
        "steel": 15,
        "gold": 0
      },
      "hiring_time": 15,
      "research_time": 0
    },
    "flywheel_motor": {
      "id": "Units.FlywheelMotor",
      "name": "Flywheel motor",
      "hp": 150,
      "scope": 2,
      "damage": {
        "value": 25,
        "modifier": null
      },
      "speed": 2.0,
      "price": {
        "wood": 0,
        "steel": 100,
        "gold": 0
      },
      "hiring_time": 15,
      "research_time": 0
    },
    "artillery": {
      "id": "Units.Artillery",
      "name": "Artillery",
      "hp": 150,
      "scope": 10,
      "damage": {
        "value": 30,
        "modifier": null
      },
      "speed": 0.5,
      "price": {
        "wood": 0,
        "steel": 150,
        "gold": 50
      },
      "hiring_time": 15,
      "research_time": 0
    },
    "villagers": {
      "id": "Units.Villagers",
      "name": "Villagers",
      "hp": 50,
      "scope": 0,
      "damage": {
        "value": 5,
        "modifier": null
      },
      "speed": 1.0,
      "price": {
        "wood": 50,
        "steel": 0,
        "gold": 0
      },
      "hiring_time": 15,
      "research_time": 0
    },
    "cyborg": {
      "id": "Units.Cyborg",
      "name": "Cyborg",
      "hp": 200,
      "scope": 0,
      "damage": {
        "value": 40,
        "modifier": null
      },
      "speed": 2.0,
      "price": {
        "wood": 150,
        "steel": 30,
        "gold": 10
      },
      "hiring_time": 15,
      "research_time": 0
    },
    "flame_thrower": {
      "id": "Units.FlameThrower",
      "name": "Flame thrower",
      "hp": 150,
      "scope": 3,
      "damage": {
        "value": 40,
        "modifier": null
      },
      "speed": 1.0,
      "price": {
        "wood": 150,
        "steel": 40,
        "gold": 15
      },
      "hiring_time": 15,
      "research_time": 60
    },
    "ship": {
      "id": "Units.Ship",
      "name": "Ship",
      "hp": 250,
      "scope": 2,
      "damage": {
        "value": 50,
        "modifier": null
      },
      "speed": 3.0,
      "price": {
        "wood": 0,
        "steel": 150,
        "gold": 75
      },
      "hiring_time": 15,
      "research_time": 60
    },
    "medical_engineer": {
      "id": "Units.MedicalEngineer",
      "name": "Medical Engineer",
      "hp": 150,
      "scope": 3,
      "damage": {
        "value": 15,
        "modifier": null
      },
      "speed": 2,
      "price": {
        "wood": 150,
        "steel": 50,
        "gold": 25
      },
      "hiring_time": 15,
      "research_time": 0
    },
    "scout": {
      "id": "Units.Scout",
      "name": "Scout",
      "hp": 100,
      "scope": 0,
      "damage": {
        "value": 0,
        "modifier": null
      },
      "speed": 4.0,
      "price": {
        "wood": 50,
        "steel": 0,
        "gold": 0
      },
      "hiring_time": 15,
      "research_time": 60
    }
  }
}